[
  {
    "id": 1,
    "firstname": "Jeff",
    "surname": "Stelling"
  },
  {
    "id": 2,
    "firstname": "Chris",
    "surname": "Kamara"
  },
  {
    "id": 3,
    "firstname": "Alex",
    "surname": "Hammond"
  },
  {
    "id": 4,
    "firstname": "Jim",
    "surname": "White"
  },
  {
    "id": 5,
    "firstname": "Natalia",
    "surname": "Sawyer"
  }
]
